module intercity_backend

go 1.21

require (
	entgo.io/ent v0.13.1
	github.com/Masterminds/squirrel v1.5.4
	github.com/gin-gonic/gin v1.9.1
	github.com/golang-jwt/jwt/v5 v5.2.0
	github.com/google/uuid v1.4.0
	github.com/jackc/pgx/v5 v5.5.0
	github.com/rs/zerolog v1.31.0
	github.com/stretchr/testify v1.8.4
	golang.org/x/tools v0.18.0
	gopkg.in/yaml.v3 v3.0.1
)

require (
	ariga.io/atlas v0.19.1-0.20240203083654-5948b60a8e43 // indirect
	github.com/agext/levenshtein v1.2.1 // indirect
	github.com/apparentlymart/go-textseg/v13 v13.0.0 // indirect
	github.com/bytedance/sonic v1.10.2 // indirect
	github.com/chenzhuoyu/base64x v0.0.0-20230717121745-296ad89f973d // indirect
	github.com/chenzhuoyu/iasm v0.9.1 // indirect
	github.com/davecgh/go-spew v1.1.1 // indirect
	github.com/gabriel-vasile/mimetype v1.4.3 // indirect
	github.com/gin-contrib/sse v0.1.0 // indirect
	github.com/go-openapi/inflect v0.19.0 // indirect
	github.com/go-playground/locales v0.14.1 // indirect
	github.com/go-playground/universal-translator v0.18.1 // indirect
	github.com/go-playground/validator/v10 v10.16.0 // indirect
	github.com/goccy/go-json v0.10.2 // indirect
	github.com/google/go-cmp v0.6.0 // indirect
	github.com/hashicorp/hcl/v2 v2.13.0 // indirect
	github.com/jackc/pgpassfile v1.0.0 // indirect
	github.com/jackc/pgservicefile v0.0.0-20221227161230-091c0ba34f0a // indirect
	github.com/jackc/puddle/v2 v2.2.1 // indirect
	github.com/json-iterator/go v1.1.12 // indirect
	github.com/klauspost/cpuid/v2 v2.2.6 // indirect
	github.com/lann/builder v0.0.0-20180802200727-47ae307949d0 // indirect
	github.com/lann/ps v0.0.0-20150810152359-62de8c46ede0 // indirect
	github.com/leodido/go-urn v1.2.4 // indirect
	github.com/mattn/go-colorable v0.1.13 // indirect
	github.com/mattn/go-isatty v0.0.20 // indirect
	github.com/mitchellh/go-wordwrap v0.0.0-20150314170334-ad45545899c7 // indirect
	github.com/modern-go/concurrent v0.0.0-20180306012644-bacd9c7ef1dd // indirect
	github.com/modern-go/reflect2 v1.0.2 // indirect
	github.com/pelletier/go-toml/v2 v2.1.0 // indirect
	github.com/pmezard/go-difflib v1.0.0 // indirect
	github.com/rogpeppe/go-internal v1.11.0 // indirect
	github.com/sergi/go-diff v1.1.0 // indirect
	github.com/twitchyliquid64/golang-asm v0.15.1 // indirect
	github.com/ugorji/go/codec v1.2.11 // indirect
	github.com/zclconf/go-cty v1.8.0 // indirect
	golang.org/x/arch v0.6.0 // indirect
	golang.org/x/crypto v0.19.0 // indirect
	golang.org/x/mod v0.15.0 // indirect
	golang.org/x/net v0.21.0 // indirect
	golang.org/x/sync v0.6.0 // indirect
	golang.org/x/sys v0.17.0 // indirect
	golang.org/x/text v0.14.0 // indirect
	google.golang.org/protobuf v1.31.0 // indirect
)
